<?xml version="1.0" encoding="UTF-8"?>
<svg width="896" height="256" xmlns="http://www.w3.org/2000/svg">
<g>
<text font-family="Rachana" font-size="256px" x="448" y="184.875" text-anchor="middle">മലയാളം</text>
</g>
</svg>